{
    "layers":[
        {
            "type":"text",
            "placement": [
                {
                    "position":{
                        "x":0,
                        "y":0,
                        "width":200,
                        "height":200
                    }
                }]
        }
    ]
}